{
    "name": "Joella Rasha",
    "carac": {
        "Taille": 12,
        "Apparence": 6,
        "Constitution": 12,
        "Force": 15,
        "Agilité": 15,
        "Dextérité": 10,
        "Vue": 15,
        "Ouïe": 14,
        "Odorat-Goût": 12,
        "Volonté": 8,
        "Intellect": 6,
        "Empathie": 11,
        "Rêve": 9,
        "Chance": 15,
        "Beauté": 10,

        "Mélée": 15,
        "Tir": 12,
        "Lancer": 13,
        "Dérobée": 12,
        "Points de vie": 12,
        "Endurance": 24,

        "Seuil Constitution": 4,
        "Pts de sustentation": 3,
        "Bonus Dommages": 1,
        "Encombrement": 13.5
    },
    "comp": {
        "Brut": 0,
        "Générales":{
            "Bricolage": 3,
            "Chant": -4,
            "Course": 1,
            "Cuisine": -4,
            "Danse": -4,
            "Dessin": 1,
            "Discrétion": 2,
            "Escalade": 1,
            "Saut": 0,
            "Seduction": 0,
            "Vigilance": 4
        },
        "Combat":{
            "Bouclier": -6,
            "Corps à corps": 0,
            "Dague": 0,
            "Épée à une main": -6,
            "Épée à deux mains": -6,
            "Esquive": 3,
            "Fléaux": -6,
            "Hache à une main": 0,
            "Hache à deux mains": 3,
            "Lance": -6,
            "Hache à une main": -6,
            "Hache à deux mains": -6,
            "Arme d'Hast": -6
        },
        "Tir & Lancer":{
            "Arbalète": -8,
            "Arc": 3,
            "Fronde": -8,
            "Dague de Jet": -8,
            "Javelot": -8,
            "Fouet": -8
        },
        "Particulières":{
            "Charpenterie": 3,
            "Comédie": -8,
            "Commerce": -2,
            "Equitation": 0,
            "Maçonnerie": -3,
            "Musique": -8,
            "Pickpocket": -8,
            "Survie en Cité": 1,
            "Survie en Exterieur": 0,
            "Survie en Désert": -3,
            "Survie en Forêt": 3,
            "Survie en Glace": -3,
            "Survie en Marais": 0,
            "Survie en Montagne": 0,
            "Survie en Sous-sols": 0,
            "Travestissement": -8
        },
        "Spéciales":{
            "Acrobatie": -11,
            "Chirurgie": -11,
            "Jeu": -11,
            "Jonglerie": -11,
            "Maroquinerie": -3,
            "Métallurgie": -11,
            "Natation": 0,
            "Navigation": -11,
            "Orfèvrerie": -11,
            "Serrurerie": 0
        },
        "Connaissances":{
            "Alchimie": -8,
            "Astrologie": 0,
            "Botanique": 3,
            "Légendes": -11,
            "Écriture": -11,
            "Médecine": -11,
            "Zoologie": 0
        },
        "Draconiques":{
            "Oniros": -11,
            "Hypnos": -11,
            "Narcos": -11,
            "Thanatos": -11
        }
    }
}
