[
    [
        {"part": 1 , "reussite": 1  , "echec_tot": 92 },
        {"part": 1 , "reussite": 1  , "echec_tot": 92 },
        {"part": 1 , "reussite": 1  , "echec_tot": 92 },
        {"part": 1 , "reussite": 1  , "echec_tot": 92 },
        {"part": 1 , "reussite": 2  , "echec_tot": 92 },
        {"part": 1 , "reussite": 2  , "echec_tot": 92 },
        {"part": 1 , "reussite": 3  , "echec_tot": 92 },
        {"part": 1 , "reussite": 3  , "echec_tot": 92 },
        {"part": 1 , "reussite": 4  , "echec_tot": 92 },
        {"part": 1 , "reussite": 4  , "echec_tot": 92 },
        {"part": 1 , "reussite": 5  , "echec_tot": 92 },
        {"part": 1 , "reussite": 5  , "echec_tot": 92 },
        {"part": 2 , "reussite": 6  , "echec_tot": 92 },
        {"part": 2 , "reussite": 6  , "echec_tot": 92 },
        {"part": 2 , "reussite": 7  , "echec_tot": 92 },
        {"part": 2 , "reussite": 7  , "echec_tot": 92 },
        {"part": 2 , "reussite": 8  , "echec_tot": 92 },
        {"part": 2 , "reussite": 8  , "echec_tot": 92 }
    ],
    [
        {"part": 1 , "reussite": 1  , "echec_tot": 92 },
        {"part": 1 , "reussite": 1  , "echec_tot": 92 },
        {"part": 1 , "reussite": 2  , "echec_tot": 92 },
        {"part": 1 , "reussite": 3  , "echec_tot": 92 },
        {"part": 1 , "reussite": 4  , "echec_tot": 92 },
        {"part": 1 , "reussite": 5  , "echec_tot": 92 },
        {"part": 2 , "reussite": 6  , "echec_tot": 92 },
        {"part": 2 , "reussite": 7  , "echec_tot": 92 },
        {"part": 2 , "reussite": 8  , "echec_tot": 92 },
        {"part": 2 , "reussite": 9  , "echec_tot": 92 },
        {"part": 2 , "reussite": 10 , "echec_tot": 92 },
        {"part": 3 , "reussite": 11 , "echec_tot": 93 },
        {"part": 3 , "reussite": 12 , "echec_tot": 93 },
        {"part": 3 , "reussite": 13 , "echec_tot": 93 },
        {"part": 3 , "reussite": 14 , "echec_tot": 93 },
        {"part": 3 , "reussite": 15 , "echec_tot": 93 },
        {"part": 4 , "reussite": 16 , "echec_tot": 93 },
        {"part": 4 , "reussite": 17 , "echec_tot": 93 }
    ],
    [
        {"part": 1 , "reussite": 1  , "echec_tot": 92 },
        {"part": 1 , "reussite": 1  , "echec_tot": 92 },
        {"part": 1 , "reussite": 3  , "echec_tot": 92 },
        {"part": 1 , "reussite": 4  , "echec_tot": 92 },
        {"part": 2 , "reussite": 6  , "echec_tot": 92 },
        {"part": 2 , "reussite": 7  , "echec_tot": 92 },
        {"part": 2 , "reussite": 9  , "echec_tot": 92 },
        {"part": 2 , "reussite": 10 , "echec_tot": 92 },
        {"part": 3 , "reussite": 12 , "echec_tot": 93 },
        {"part": 3 , "reussite": 13 , "echec_tot": 93 },
        {"part": 3 , "reussite": 15 , "echec_tot": 93 },
        {"part": 4 , "reussite": 16 , "echec_tot": 93 },
        {"part": 4 , "reussite": 18 , "echec_tot": 93 },
        {"part": 4 , "reussite": 19 , "echec_tot": 93 },
        {"part": 5 , "reussite": 21 , "echec_tot": 94 },
        {"part": 5 , "reussite": 22 , "echec_tot": 94 },
        {"part": 5 , "reussite": 24 , "echec_tot": 94 },
        {"part": 5 , "reussite": 25 , "echec_tot": 94 }
    ],
    [
        {"part": 1 , "reussite": 1  , "echec_tot": 92 },
        {"part": 1 , "reussite": 2  , "echec_tot": 92 },
        {"part": 1 , "reussite": 4  , "echec_tot": 92 },
        {"part": 2 , "reussite": 6  , "echec_tot": 92 },
        {"part": 2 , "reussite": 8  , "echec_tot": 92 },
        {"part": 2 , "reussite": 10 , "echec_tot": 92 },
        {"part": 3 , "reussite": 12 , "echec_tot": 93 },
        {"part": 3 , "reussite": 14 , "echec_tot": 93 },
        {"part": 4 , "reussite": 16 , "echec_tot": 93 },
        {"part": 4 , "reussite": 18 , "echec_tot": 93 },
        {"part": 4 , "reussite": 20 , "echec_tot": 93 },
        {"part": 5 , "reussite": 22 , "echec_tot": 94 },
        {"part": 5 , "reussite": 24 , "echec_tot": 94 },
        {"part": 6 , "reussite": 26 , "echec_tot": 94 },
        {"part": 6 , "reussite": 28 , "echec_tot": 94 },
        {"part": 6 , "reussite": 30 , "echec_tot": 94 },
        {"part": 7 , "reussite": 32 , "echec_tot": 95 },
        {"part": 7 , "reussite": 34 , "echec_tot": 95 }
    ],
    [
        {"part": 1 , "reussite": 1  , "echec_tot": 92 },
        {"part": 1 , "reussite": 2  , "echec_tot": 92 },
        {"part": 1 , "reussite": 5  , "echec_tot": 92 },
        {"part": 2 , "reussite": 7  , "echec_tot": 92 },
        {"part": 2 , "reussite": 10 , "echec_tot": 92 },
        {"part": 3 , "reussite": 12 , "echec_tot": 93 },
        {"part": 3 , "reussite": 15 , "echec_tot": 93 },
        {"part": 4 , "reussite": 17 , "echec_tot": 93 },
        {"part": 4 , "reussite": 20 , "echec_tot": 93 },
        {"part": 5 , "reussite": 22 , "echec_tot": 94 },
        {"part": 5 , "reussite": 25 , "echec_tot": 94 },
        {"part": 6 , "reussite": 27 , "echec_tot": 94 },
        {"part": 6 , "reussite": 30 , "echec_tot": 94 },
        {"part": 7 , "reussite": 32 , "echec_tot": 95 },
        {"part": 7 , "reussite": 35 , "echec_tot": 95 },
        {"part": 8 , "reussite": 37 , "echec_tot": 95 },
        {"part": 8 , "reussite": 40 , "echec_tot": 95 },
        {"part": 9 , "reussite": 42 , "echec_tot": 96 }
    ],
    [
        {"part": 1 , "reussite": 1  , "echec_tot": 92 },
        {"part": 1 , "reussite": 3  , "echec_tot": 92 },
        {"part": 2 , "reussite": 6  , "echec_tot": 92 },
        {"part": 2 , "reussite": 9  , "echec_tot": 92 },
        {"part": 3 , "reussite": 12 , "echec_tot": 93 },
        {"part": 3 , "reussite": 15 , "echec_tot": 93 },
        {"part": 4 , "reussite": 18 , "echec_tot": 93 },
        {"part": 5 , "reussite": 21 , "echec_tot": 94 },
        {"part": 5 , "reussite": 24 , "echec_tot": 94 },
        {"part": 6 , "reussite": 27 , "echec_tot": 94 },
        {"part": 6 , "reussite": 30 , "echec_tot": 94 },
        {"part": 7 , "reussite": 33 , "echec_tot": 95 },
        {"part": 8 , "reussite": 36 , "echec_tot": 95 },
        {"part": 8 , "reussite": 39 , "echec_tot": 95 },
        {"part": 9 , "reussite": 42 , "echec_tot": 96 },
        {"part": 9 , "reussite": 45 , "echec_tot": 96 },
        {"part": 10, "reussite": 48 , "echec_tot": 96 },
        {"part": 11, "reussite": 51 , "echec_tot": 97 }
    ],
    [
        {"part": 1 , "reussite": 1  , "echec_tot": 92 },
        {"part": 1 , "reussite": 3  , "echec_tot": 92 },
        {"part": 2 , "reussite": 7  , "echec_tot": 92 },
        {"part": 2 , "reussite": 10 , "echec_tot": 92 },
        {"part": 3 , "reussite": 14 , "echec_tot": 93 },
        {"part": 4 , "reussite": 17 , "echec_tot": 94 },
        {"part": 5 , "reussite": 21 , "echec_tot": 94 },
        {"part": 5 , "reussite": 24 , "echec_tot": 94 },
        {"part": 6 , "reussite": 28 , "echec_tot": 94 },
        {"part": 7 , "reussite": 31 , "echec_tot": 95 },
        {"part": 7 , "reussite": 35 , "echec_tot": 95 },
        {"part": 8 , "reussite": 38 , "echec_tot": 95 },
        {"part": 9 , "reussite": 42 , "echec_tot": 96 },
        {"part": 9 , "reussite": 45 , "echec_tot": 96 },
        {"part": 10, "reussite": 49 , "echec_tot": 96 },
        {"part": 11, "reussite": 52 , "echec_tot": 97 },
        {"part": 12, "reussite": 56 , "echec_tot": 97 },
        {"part": 12, "reussite": 59 , "echec_tot": 97 }
    ],
    [
        {"part": 1 , "reussite": 2  , "echec_tot": 92 },
        {"part": 1 , "reussite": 4  , "echec_tot": 92 },
        {"part": 2 , "reussite": 8  , "echec_tot": 92 },
        {"part": 3 , "reussite": 12 , "echec_tot": 93 },
        {"part": 4 , "reussite": 16 , "echec_tot": 93 },
        {"part": 4 , "reussite": 20 , "echec_tot": 93 },
        {"part": 5 , "reussite": 24 , "echec_tot": 94 },
        {"part": 6 , "reussite": 28 , "echec_tot": 94 },
        {"part": 7 , "reussite": 32 , "echec_tot": 95 },
        {"part": 8 , "reussite": 36 , "echec_tot": 95 },
        {"part": 8 , "reussite": 40 , "echec_tot": 95 },
        {"part": 9 , "reussite": 44 , "echec_tot": 96 },
        {"part": 10, "reussite": 48 , "echec_tot": 96 },
        {"part": 11, "reussite": 52 , "echec_tot": 97 },
        {"part": 12, "reussite": 56 , "echec_tot": 97 },
        {"part": 12, "reussite": 60 , "echec_tot": 97 },
        {"part": 13, "reussite": 64 , "echec_tot": 98 },
        {"part": 14, "reussite": 68 , "echec_tot": 98 }
    ],
    [
        {"part": 1 , "reussite": 2  , "echec_tot": 92 },
        {"part": 1 , "reussite": 4  , "echec_tot": 92 },
        {"part": 2 , "reussite": 9  , "echec_tot": 92 },
        {"part": 3 , "reussite": 13 , "echec_tot": 93 },
        {"part": 4 , "reussite": 18 , "echec_tot": 93 },
        {"part": 5 , "reussite": 22 , "echec_tot": 94 },
        {"part": 6 , "reussite": 27 , "echec_tot": 94 },
        {"part": 7 , "reussite": 31 , "echec_tot": 95 },
        {"part": 8 , "reussite": 36 , "echec_tot": 95 },
        {"part": 8 , "reussite": 40 , "echec_tot": 95 },
        {"part": 9 , "reussite": 45 , "echec_tot": 96 },
        {"part": 10, "reussite": 49 , "echec_tot": 96 },
        {"part": 11, "reussite": 54 , "echec_tot": 97 },
        {"part": 12, "reussite": 58 , "echec_tot": 97 },
        {"part": 13, "reussite": 63 , "echec_tot": 98 },
        {"part": 14, "reussite": 67 , "echec_tot": 98 },
        {"part": 15, "reussite": 72 , "echec_tot": 99 },
        {"part": 16, "reussite": 76 , "echec_tot": 99 }
    ],
    [
        {"part": 1 , "reussite": 2  , "echec_tot": 92 },
        {"part": 1 , "reussite": 5  , "echec_tot": 92 },
        {"part": 2 , "reussite": 10 , "echec_tot": 92 },
        {"part": 3 , "reussite": 15 , "echec_tot": 93 },
        {"part": 4 , "reussite": 20 , "echec_tot": 93 },
        {"part": 5 , "reussite": 25 , "echec_tot": 94 },
        {"part": 6 , "reussite": 30 , "echec_tot": 95 },
        {"part": 7 , "reussite": 35 , "echec_tot": 95 },
        {"part": 8 , "reussite": 40 , "echec_tot": 96 },
        {"part": 9 , "reussite": 45 , "echec_tot": 96 },
        {"part": 10, "reussite": 50 , "echec_tot": 96 },
        {"part": 11, "reussite": 55 , "echec_tot": 97 },
        {"part": 12, "reussite": 60 , "echec_tot": 97 },
        {"part": 13, "reussite": 65 , "echec_tot": 98 },
        {"part": 14, "reussite": 70 , "echec_tot": 98 },
        {"part": 15, "reussite": 75 , "echec_tot": 99 },
        {"part": 16, "reussite": 80 , "echec_tot": 99 },
        {"part": 17, "reussite": 85 , "echec_tot": 100}
    ],
    [
        {"part": 1 , "reussite": 2  , "echec_tot": 92 },
        {"part": 1 , "reussite": 5  , "echec_tot": 92 },
        {"part": 3 , "reussite": 11 , "echec_tot": 93 },
        {"part": 4 , "reussite": 16 , "echec_tot": 93 },
        {"part": 5 , "reussite": 22 , "echec_tot": 94 },
        {"part": 6 , "reussite": 27 , "echec_tot": 95 },
        {"part": 7 , "reussite": 33 , "echec_tot": 95 },
        {"part": 8 , "reussite": 38 , "echec_tot": 96 },
        {"part": 9 , "reussite": 44 , "echec_tot": 96 },
        {"part": 10, "reussite": 49 , "echec_tot": 97 },
        {"part": 11, "reussite": 55 , "echec_tot": 97 },
        {"part": 12, "reussite": 60 , "echec_tot": 98 },
        {"part": 14, "reussite": 66 , "echec_tot": 98 },
        {"part": 15, "reussite": 71 , "echec_tot": 99 },
        {"part": 16, "reussite": 77 , "echec_tot": 99 },
        {"part": 17, "reussite": 82 , "echec_tot": 100},
        {"part": 18, "reussite": 88 , "echec_tot": 100},
        {"part": 19, "reussite": 93 , "echec_tot": 100}
    ],
    [
        {"part": 1 , "reussite": 3  , "echec_tot": 92 },
        {"part": 2 , "reussite": 6  , "echec_tot": 92 },
        {"part": 3 , "reussite": 12 , "echec_tot": 93 },
        {"part": 4 , "reussite": 18 , "echec_tot": 94 },
        {"part": 5 , "reussite": 24 , "echec_tot": 94 },
        {"part": 6 , "reussite": 30 , "echec_tot": 95 },
        {"part": 8 , "reussite": 36 , "echec_tot": 96 },
        {"part": 9 , "reussite": 42 , "echec_tot": 96 },
        {"part": 10, "reussite": 48 , "echec_tot": 96 },
        {"part": 11, "reussite": 54 , "echec_tot": 97 },
        {"part": 12, "reussite": 60 , "echec_tot": 97 },
        {"part": 14, "reussite": 66 , "echec_tot": 98 },
        {"part": 15, "reussite": 72 , "echec_tot": 99 },
        {"part": 16, "reussite": 78 , "echec_tot": 99 },
        {"part": 17, "reussite": 84 , "echec_tot": 100},
        {"part": 18, "reussite": 90 , "echec_tot": 100},
        {"part": 20, "reussite": 96 , "echec_tot": 100},
        {"part": 21, "reussite": 102, "echec_tot": -1 }
    ],
    [
        {"part": 1 , "reussite": 3  , "echec_tot": 92 },
        {"part": 2 , "reussite": 6  , "echec_tot": 92 },
        {"part": 3 , "reussite": 13 , "echec_tot": 93 },
        {"part": 4 , "reussite": 19 , "echec_tot": 93 },
        {"part": 6 , "reussite": 26 , "echec_tot": 94 },
        {"part": 7 , "reussite": 32 , "echec_tot": 95 },
        {"part": 8 , "reussite": 39 , "echec_tot": 95 },
        {"part": 9 , "reussite": 45 , "echec_tot": 96 },
        {"part": 11, "reussite": 52 , "echec_tot": 97 },
        {"part": 12, "reussite": 58 , "echec_tot": 97 },
        {"part": 13, "reussite": 65 , "echec_tot": 98 },
        {"part": 15, "reussite": 71 , "echec_tot": 99 },
        {"part": 16, "reussite": 78 , "echec_tot": 99 },
        {"part": 17, "reussite": 84 , "echec_tot": 100},
        {"part": 19, "reussite": 91 , "echec_tot": 100},
        {"part": 20, "reussite": 97 , "echec_tot": 100},
        {"part": 21, "reussite": 104, "echec_tot": -1 },
        {"part": 22, "reussite": 110, "echec_tot": -1 }
    ],
    [
        {"part": 1 , "reussite": 3  , "echec_tot": 92 },
        {"part": 2 , "reussite": 7  , "echec_tot": 92 },
        {"part": 3 , "reussite": 14 , "echec_tot": 93 },
        {"part": 5 , "reussite": 21 , "echec_tot": 94 },
        {"part": 6 , "reussite": 28 , "echec_tot": 94 },
        {"part": 7 , "reussite": 35 , "echec_tot": 95 },
        {"part": 9 , "reussite": 42 , "echec_tot": 96 },
        {"part": 10, "reussite": 49 , "echec_tot": 96 },
        {"part": 12, "reussite": 56 , "echec_tot": 97 },
        {"part": 13, "reussite": 63 , "echec_tot": 98 },
        {"part": 14, "reussite": 70 , "echec_tot": 98 },
        {"part": 16, "reussite": 77 , "echec_tot": 99 },
        {"part": 17, "reussite": 84 , "echec_tot": 100},
        {"part": 19, "reussite": 91 , "echec_tot": 100},
        {"part": 20, "reussite": 98 , "echec_tot": 100},
        {"part": 21, "reussite": 105, "echec_tot": -1 },
        {"part": 23, "reussite": 112, "echec_tot": -1 },
        {"part": 24, "reussite": 119, "echec_tot": -1 }
    ],
    [
        {"part": 1 , "reussite": 3  , "echec_tot": 92 },
        {"part": 2 , "reussite": 7  , "echec_tot": 92 },
        {"part": 3 , "reussite": 15 , "echec_tot": 93 },
        {"part": 5 , "reussite": 22 , "echec_tot": 94 },
        {"part": 6 , "reussite": 30 , "echec_tot": 94 },
        {"part": 8 , "reussite": 37 , "echec_tot": 95 },
        {"part": 9 , "reussite": 45 , "echec_tot": 96 },
        {"part": 11, "reussite": 52 , "echec_tot": 97 },
        {"part": 12, "reussite": 60 , "echec_tot": 97 },
        {"part": 14, "reussite": 67 , "echec_tot": 98 },
        {"part": 15, "reussite": 75 , "echec_tot": 99 },
        {"part": 17, "reussite": 82 , "echec_tot": 100},
        {"part": 18, "reussite": 90 , "echec_tot": 100},
        {"part": 20, "reussite": 97 , "echec_tot": 100},
        {"part": 21, "reussite": 105, "echec_tot": -1 },
        {"part": 23, "reussite": 112, "echec_tot": -1 },
        {"part": 24, "reussite": 120, "echec_tot": -1 },
        {"part": 26, "reussite": 127, "echec_tot": -1 }
    ],
    [
        {"part": 1 , "reussite": 4  , "echec_tot": 92 },
        {"part": 2 , "reussite": 8  , "echec_tot": 92 },
        {"part": 4 , "reussite": 16 , "echec_tot": 93 },
        {"part": 5 , "reussite": 24 , "echec_tot": 94 },
        {"part": 7 , "reussite": 32 , "echec_tot": 95 },
        {"part": 8 , "reussite": 40 , "echec_tot": 95 },
        {"part": 10, "reussite": 48 , "echec_tot": 96 },
        {"part": 12, "reussite": 56 , "echec_tot": 97 },
        {"part": 13, "reussite": 64 , "echec_tot": 98 },
        {"part": 15, "reussite": 72 , "echec_tot": 99 },
        {"part": 16, "reussite": 80 , "echec_tot": 99 },
        {"part": 18, "reussite": 88 , "echec_tot": 100},
        {"part": 20, "reussite": 96 , "echec_tot": 100},
        {"part": 21, "reussite": 104, "echec_tot": -1 },
        {"part": 23, "reussite": 112, "echec_tot": -1 },
        {"part": 24, "reussite": 120, "echec_tot": -1 },
        {"part": 26, "reussite": 128, "echec_tot": -1 },
        {"part": 28, "reussite": 136, "echec_tot": -1 }
    ],
    [
        {"part": 1 , "reussite": 4  , "echec_tot": 92 },
        {"part": 2 , "reussite": 8  , "echec_tot": 92 },
        {"part": 4 , "reussite": 17 , "echec_tot": 93 },
        {"part": 5 , "reussite": 25 , "echec_tot": 94 },
        {"part": 7 , "reussite": 34 , "echec_tot": 95 },
        {"part": 9 , "reussite": 42 , "echec_tot": 96 },
        {"part": 11, "reussite": 51 , "echec_tot": 97 },
        {"part": 12, "reussite": 59 , "echec_tot": 97 },
        {"part": 14, "reussite": 68 , "echec_tot": 98 },
        {"part": 16, "reussite": 76 , "echec_tot": 99 },
        {"part": 17, "reussite": 85 , "echec_tot": 100},
        {"part": 19, "reussite": 93 , "echec_tot": 100},
        {"part": 21, "reussite": 102, "echec_tot": -1 },
        {"part": 22, "reussite": 110, "echec_tot": -1 },
        {"part": 24, "reussite": 119, "echec_tot": -1 },
        {"part": 26, "reussite": 127, "echec_tot": -1 },
        {"part": 28, "reussite": 136, "echec_tot": -1 },
        {"part": 29, "reussite": 144, "echec_tot": -1 }
    ],
    [
        {"part": 1 , "reussite": 4  , "echec_tot": 92 },
        {"part": 2 , "reussite": 9  , "echec_tot": 92 },
        {"part": 4 , "reussite": 18 , "echec_tot": 93 },
        {"part": 6 , "reussite": 27 , "echec_tot": 94 },
        {"part": 8 , "reussite": 36 , "echec_tot": 95 },
        {"part": 9 , "reussite": 45 , "echec_tot": 96 },
        {"part": 11, "reussite": 54 , "echec_tot": 97 },
        {"part": 13, "reussite": 63 , "echec_tot": 98 },
        {"part": 15, "reussite": 72 , "echec_tot": 99 },
        {"part": 17, "reussite": 81 , "echec_tot": 100},
        {"part": 18, "reussite": 90 , "echec_tot": 100},
        {"part": 20, "reussite": 99 , "echec_tot": 100},
        {"part": 22, "reussite": 108, "echec_tot": -1 },
        {"part": 24, "reussite": 117, "echec_tot": -1 },
        {"part": 26, "reussite": 126, "echec_tot": -1 },
        {"part": 27, "reussite": 135, "echec_tot": -1 },
        {"part": 29, "reussite": 144, "echec_tot": -1 },
        {"part": 31, "reussite": 153, "echec_tot": -1 }
    ],
    [
        {"part": 1 , "reussite": 4  , "echec_tot": 92 },
        {"part": 2 , "reussite": 9  , "echec_tot": 92 },
        {"part": 4 , "reussite": 19 , "echec_tot": 93 },
        {"part": 6 , "reussite": 28 , "echec_tot": 94 },
        {"part": 8 , "reussite": 38 , "echec_tot": 95 },
        {"part": 10, "reussite": 47 , "echec_tot": 96 },
        {"part": 12, "reussite": 57 , "echec_tot": 97 },
        {"part": 14, "reussite": 66 , "echec_tot": 98 },
        {"part": 16, "reussite": 76 , "echec_tot": 99 },
        {"part": 17, "reussite": 85 , "echec_tot": 100},
        {"part": 19, "reussite": 95 , "echec_tot": 100},
        {"part": 21, "reussite": 104, "echec_tot": -1 },
        {"part": 23, "reussite": 114, "echec_tot": -1 },
        {"part": 25, "reussite": 123, "echec_tot": -1 },
        {"part": 27, "reussite": 133, "echec_tot": -1 },
        {"part": 29, "reussite": 142, "echec_tot": -1 },
        {"part": 31, "reussite": 152, "echec_tot": -1 },
        {"part": 33, "reussite": 161, "echec_tot": -1 }
    ],
    [
        {"part": 1 , "reussite": 5  , "echec_tot": 92 },
        {"part": 2 , "reussite": 10 , "echec_tot": 92 },
        {"part": 4 , "reussite": 20 , "echec_tot": 93 },
        {"part": 6 , "reussite": 30 , "echec_tot": 94 },
        {"part": 8 , "reussite": 40 , "echec_tot": 95 },
        {"part": 10, "reussite": 50 , "echec_tot": 96 },
        {"part": 12, "reussite": 60 , "echec_tot": 97 },
        {"part": 14, "reussite": 70 , "echec_tot": 98 },
        {"part": 16, "reussite": 80 , "echec_tot": 99 },
        {"part": 18, "reussite": 90 , "echec_tot": 100},
        {"part": 20, "reussite": 100, "echec_tot": 100},
        {"part": 22, "reussite": 110, "echec_tot": -1 },
        {"part": 24, "reussite": 120, "echec_tot": -1 },
        {"part": 26, "reussite": 130, "echec_tot": -1 },
        {"part": 28, "reussite": 140, "echec_tot": -1 },
        {"part": 30, "reussite": 150, "echec_tot": -1 },
        {"part": 32, "reussite": 160, "echec_tot": -1 },
        {"part": 34, "reussite": 170, "echec_tot": -1 }
    ],
    [
        {"part": 1 , "reussite": 5  , "echec_tot": 92 },
        {"part": 2 , "reussite": 10 , "echec_tot": 92 },
        {"part": 5 , "reussite": 21 , "echec_tot": 94 },
        {"part": 7 , "reussite": 31 , "echec_tot": 95 },
        {"part": 9 , "reussite": 42 , "echec_tot": 96 },
        {"part": 11, "reussite": 52 , "echec_tot": 97 },
        {"part": 13, "reussite": 63 , "echec_tot": 98 },
        {"part": 15, "reussite": 73 , "echec_tot": 99 },
        {"part": 17, "reussite": 84 , "echec_tot": 100},
        {"part": 19, "reussite": 94 , "echec_tot": 100},
        {"part": 21, "reussite": 105, "echec_tot": -1 },
        {"part": 23, "reussite": 115, "echec_tot": -1 },
        {"part": 26, "reussite": 126, "echec_tot": -1 },
        {"part": 28, "reussite": 136, "echec_tot": -1 },
        {"part": 30, "reussite": 147, "echec_tot": -1 },
        {"part": 32, "reussite": 157, "echec_tot": -1 },
        {"part": 34, "reussite": 168, "echec_tot": -1 },
        {"part": 36, "reussite": 178, "echec_tot": -1 }
    ]
]
